0
SECTION
2
ENTITIES
0
LINE
8
0
10
15.0
20
0.0
30
-1633.3973
11
15.0
21
0.0
31
-1558.3973
0
LINE
8
0
10
15.0
20
0.0
30
-1558.3973
11
15.0
21
0.0
31
-1498.3973
0
LINE
8
0
10
15.0
20
0.0
30
-1498.3973
11
15.0
21
0.0
31
-1423.3973
0
LINE
8
0
10
15.0
20
7.500004
30
-1438.3973
11
15.0
21
-37.5
31
-1438.3973
0
LINE
8
0
10
15.0
20
-30.000002
30
-1453.3973
11
15.0
21
-30.000002
31
-1378.3973
0
LINE
8
0
10
15.0
20
-30.000002
30
-1378.3973
11
15.0
21
-30.000002
31
-1318.3973
0
LINE
8
0
10
15.0
20
-30.000002
30
-1318.3973
11
15.0
21
-30.000002
31
-1258.3973
0
LINE
8
0
10
15.0
20
-30.000002
30
-1258.3973
11
15.0
21
-30.000002
31
-1198.3973
0
LINE
8
0
10
15.0
20
-30.000002
30
-1198.3973
11
15.0
21
-30.000002
31
-1123.3973
0
LINE
8
0
10
7.5
20
-30.000002
30
-1138.3973
11
52.5
21
-30.000002
31
-1138.3973
0
LINE
8
0
10
45.0
20
-30.000002
30
-1153.3973
11
45.0
21
-30.000002
31
-1078.3972
0
LINE
8
0
10
45.0
20
-30.000002
30
-1078.3972
11
45.0
21
-30.000002
31
-1018.3973
0
LINE
8
0
10
45.0
20
-30.000002
30
-1018.3973
11
45.0
21
-30.000002
31
-958.3973
0
LINE
8
0
10
45.0
20
-30.000002
30
-958.3973
11
45.0
21
-30.000002
31
-883.3973
0
LINE
8
0
10
52.5
20
-30.000002
30
-898.3973
11
15.0
21
-30.000002
31
-898.3973
0
LINE
8
0
10
15.0
20
-30.000002
30
-898.3973
11
-15.0
21
-30.000002
31
-898.3973
0
LINE
8
0
10
-15.0
20
-30.000002
30
-898.3973
11
-52.500008
21
-30.000002
31
-898.3973
0
LINE
8
0
10
-45.000008
20
-30.000002
30
-883.3973
11
-45.000008
21
-30.000002
31
-973.3973
0
LINE
8
0
10
-52.500008
20
-30.000002
30
-958.3973
11
-7.5
21
-30.000002
31
-958.3973
0
LINE
8
0
10
-15.0
20
-22.5
30
-958.3973
11
-15.0
21
-67.50001
31
-958.3973
0
LINE
8
0
10
-15.0
20
-60.000004
30
-973.3973
11
-15.0
21
-60.000004
31
-883.3973
0
LINE
8
0
10
-22.5
20
-60.000004
30
-898.3973
11
22.5
21
-60.000004
31
-898.3973
0
LINE
8
0
10
15.0
20
-60.000004
30
-913.3973
11
15.0
21
-60.000004
31
-838.3973
0
LINE
8
0
10
15.0
20
-60.000004
30
-838.3973
11
15.0
21
-60.000004
31
-778.3973
0
LINE
8
0
10
15.0
20
-60.000004
30
-778.3973
11
15.0
21
-60.000004
31
-718.3973
0
LINE
8
0
10
15.0
20
-60.000004
30
-718.3973
11
15.0
21
-60.000004
31
-658.3973
0
LINE
8
0
10
15.0
20
-60.000004
30
-658.3973
11
15.0
21
-60.000004
31
-598.3973
0
LINE
8
0
10
15.0
20
-60.000004
30
-598.3973
11
15.0
21
-60.000004
31
-538.3972
0
LINE
8
0
10
15.0
20
-60.000004
30
-538.3972
11
15.0
21
-60.000004
31
-463.39722
0
LINE
8
0
10
22.5
20
-60.000004
30
-478.39722
11
-22.5
21
-60.000004
31
-478.39722
0
LINE
8
0
10
-15.0
20
-60.000004
30
-463.39722
11
-15.0
21
-60.000004
31
-553.3972
0
LINE
8
0
10
-7.5
20
-60.000004
30
-538.3972
11
-52.500008
21
-60.000004
31
-538.3972
0
LINE
8
0
10
-45.000008
20
-60.000004
30
-553.3972
11
-45.000008
21
-60.000004
31
-478.39722
0
LINE
8
0
10
-45.000008
20
-60.000004
30
-478.39722
11
-45.000008
21
-60.000004
31
-418.39722
0
LINE
8
0
10
-45.000008
20
-60.000004
30
-418.39722
11
-45.000008
21
-60.000004
31
-358.39722
0
LINE
8
0
10
-45.000008
20
-60.000004
30
-358.39722
11
-45.000008
21
-60.000004
31
-298.39722
0
LINE
8
0
10
-45.000008
20
-60.000004
30
-298.39722
11
-45.000008
21
-60.000004
31
-238.39722
0
LINE
8
0
10
-45.000008
20
-60.000004
30
-238.39722
11
-45.000008
21
-60.000004
31
-178.39722
0
LINE
8
0
10
-45.000008
20
-60.000004
30
-178.39722
11
-45.000008
21
-60.000004
31
-118.39722
0
LINE
8
0
10
-45.000008
20
-60.000004
30
-118.39722
11
-45.000008
21
-60.000004
31
-58.397217
0
LINE
8
0
10
-45.000008
20
-60.000004
30
-58.397217
11
-45.000008
21
-60.000004
31
1.6027832
0
LINE
8
0
10
-45.000008
20
-60.000004
30
1.6027832
11
-45.000008
21
-60.000004
31
61.602783
0
LINE
8
0
10
-45.000008
20
-60.000004
30
61.602783
11
-45.000008
21
-60.000004
31
121.60278
0
LINE
8
0
10
-37.500008
20
-60.000004
30
121.60278
11
-75.00001
21
-60.000004
31
121.60278
0
LINE
8
0
10
-75.00001
20
-60.000004
30
121.60278
11
-112.500015
21
-60.000004
31
121.60278
0
LINE
8
0
10
-105.000015
20
-60.000004
30
106.60278
11
-105.000015
21
-60.000004
31
181.60278
0
LINE
8
0
10
-105.000015
20
-60.000004
30
181.60278
11
-105.000015
21
-60.000004
31
241.60278
0
LINE
8
0
10
-105.000015
20
-60.000004
30
241.60278
11
-105.000015
21
-60.000004
31
301.60278
0
LINE
8
0
10
-105.000015
20
-60.000004
30
301.60278
11
-105.000015
21
-60.000004
31
361.60278
0
LINE
8
0
10
-105.000015
20
-60.000004
30
361.60278
11
-105.000015
21
-60.000004
31
421.60278
0
LINE
8
0
10
-105.000015
20
-60.000004
30
421.60278
11
-105.000015
21
-60.000004
31
481.6029
0
LINE
8
0
10
-105.000015
20
-60.000004
30
481.6029
11
-105.000015
21
-60.000004
31
541.6029
0
LINE
8
0
10
-105.000015
20
-60.000004
30
541.6029
11
-105.000015
21
-60.000004
31
616.6029
0
LINE
8
0
10
-97.50001
20
-60.000004
30
601.6029
11
-142.50002
21
-60.000004
31
601.6029
0
LINE
8
0
10
-135.00002
20
-60.000004
30
601.6029
11
-135.00002
21
-60.000004
31
526.6029
0
LINE
8
0
10
-127.500015
20
-60.000004
30
541.6029
11
-172.50002
21
-60.000004
31
541.6029
0
LINE
8
0
10
-165.00002
20
-60.000004
30
526.6029
11
-165.00002
21
-60.000004
31
601.6029
0
LINE
8
0
10
-165.00002
20
-60.000004
30
601.6029
11
-165.00002
21
-60.000004
31
661.6029
0
LINE
8
0
10
-165.00002
20
-60.000004
30
661.6029
11
-165.00002
21
-60.000004
31
721.6029
0
LINE
8
0
10
-165.00002
20
-60.000004
30
721.6029
11
-165.00002
21
-60.000004
31
781.6029
0
LINE
8
0
10
-165.00002
20
-60.000004
30
781.6029
11
-165.00002
21
-60.000004
31
841.6029
0
LINE
8
0
10
-165.00002
20
-60.000004
30
841.6029
11
-165.00002
21
-60.000004
31
901.6029
0
LINE
8
0
10
-165.00002
20
-60.000004
30
901.6029
11
-165.00002
21
-60.000004
31
961.6029
0
LINE
8
0
10
-165.00002
20
-60.000004
30
961.6029
11
-165.00002
21
-60.000004
31
1021.6029
0
LINE
8
0
10
-165.00002
20
-60.000004
30
1021.6029
11
-165.00002
21
-60.000004
31
1081.6029
0
LINE
8
0
10
-165.00002
20
-60.000004
30
1081.6029
11
-165.00002
21
-60.000004
31
1156.6029
0
LINE
8
0
10
-165.00002
20
-67.50001
30
1141.6029
11
-165.00002
21
-22.5
31
1141.6029
0
LINE
8
0
10
-165.00002
20
-30.000002
30
1126.6029
11
-165.00002
21
-30.000002
31
1216.6029
0
LINE
8
0
10
-45.000008
20
-60.000004
30
121.60278
11
-45.000008
21
-60.000004
31
196.60278
0
LINE
8
0
10
-52.500008
20
-60.000004
30
181.60278
11
-15.0
21
-60.000004
31
181.60278
0
LINE
8
0
10
-15.0
20
-60.000004
30
181.60278
11
-15.0
21
-60.000004
31
241.60278
0
LINE
8
0
10
-15.0
20
-60.000004
30
241.60278
11
-15.0
21
-60.000004
31
301.60278
0
LINE
8
0
10
-15.0
20
-60.000004
30
301.60278
11
-15.0
21
-60.000004
31
361.60278
0
LINE
8
0
10
-15.0
20
-60.000004
30
361.60278
11
-15.0
21
-60.000004
31
421.60278
0
LINE
8
0
10
-15.0
20
-60.000004
30
421.60278
11
-15.0
21
-60.000004
31
481.6029
0
LINE
8
0
10
-15.0
20
-60.000004
30
481.6029
11
-15.0
21
-60.000004
31
541.6029
0
LINE
8
0
10
-15.0
20
-60.000004
30
541.6029
11
-15.0
21
-60.000004
31
601.6029
0
LINE
8
0
10
-15.0
20
-60.000004
30
601.6029
11
-15.0
21
-60.000004
31
661.6029
0
LINE
8
0
10
-15.0
20
-60.000004
30
661.6029
11
-15.0
21
-60.000004
31
721.6029
0
LINE
8
0
10
-15.0
20
-60.000004
30
721.6029
11
-15.0
21
-60.000004
31
781.6029
0
LINE
8
0
10
-15.0
20
-60.000004
30
781.6029
11
-15.0
21
-60.000004
31
841.6029
0
LINE
8
0
10
-15.0
20
-60.000004
30
841.6029
11
-15.0
21
-60.000004
31
901.6029
0
LINE
8
0
10
-15.0
20
-60.000004
30
901.6029
11
-15.0
21
-60.000004
31
961.6029
0
LINE
8
0
10
-15.0
20
-60.000004
30
961.6029
11
-15.0
21
-60.000004
31
1021.6029
0
LINE
8
0
10
-15.0
20
-60.000004
30
1021.6029
11
-15.0
21
-60.000004
31
1096.6029
0
LINE
8
0
10
-15.0
20
-67.50001
30
1081.6029
11
-15.0
21
-30.000002
31
1081.6029
0
LINE
8
0
10
-15.0
20
-30.000002
30
1081.6029
11
-15.0
21
7.500004
31
1081.6029
0
LINE
8
0
10
-15.0
20
0.0
30
1066.6029
11
-15.0
21
0.0
31
1156.6029
0
LINE
8
0
10
-135.00002
20
-60.000004
30
601.6029
11
-135.00002
21
-60.000004
31
661.6029
0
LINE
8
0
10
-135.00002
20
-60.000004
30
661.6029
11
-135.00002
21
-60.000004
31
721.6029
0
LINE
8
0
10
-135.00002
20
-60.000004
30
721.6029
11
-135.00002
21
-60.000004
31
781.6029
0
LINE
8
0
10
-135.00002
20
-60.000004
30
781.6029
11
-135.00002
21
-60.000004
31
841.6029
0
LINE
8
0
10
-135.00002
20
-60.000004
30
841.6029
11
-135.00002
21
-60.000004
31
901.6029
0
LINE
8
0
10
-135.00002
20
-60.000004
30
901.6029
11
-135.00002
21
-60.000004
31
961.6029
0
LINE
8
0
10
-135.00002
20
-60.000004
30
961.6029
11
-135.00002
21
-60.000004
31
1021.6029
0
LINE
8
0
10
-135.00002
20
-60.000004
30
1021.6029
11
-135.00002
21
-60.000004
31
1096.6029
0
LINE
8
0
10
-135.00002
20
-67.50001
30
1081.6029
11
-135.00002
21
-22.5
31
1081.6029
0
LINE
8
0
10
-142.50002
20
-30.000002
30
1081.6029
11
-97.50001
21
-30.000002
31
1081.6029
0
LINE
8
0
10
-105.000015
20
-30.000002
30
1081.6029
11
-105.000015
21
-67.50001
31
1081.6029
0
LINE
8
0
10
-112.500015
20
-60.000004
30
1081.6029
11
-67.50001
21
-60.000004
31
1081.6029
0
LINE
8
0
10
-75.00001
20
-67.50001
30
1081.6029
11
-75.00001
21
-22.5
31
1081.6029
0
LINE
8
0
10
-75.00001
20
-30.000002
30
1066.6029
11
-75.00001
21
-30.000002
31
1141.6029
0
LINE
8
0
10
-75.00001
20
-22.5
30
1141.6029
11
-75.00001
21
-67.50001
31
1141.6029
0
LINE
8
0
10
-67.50001
20
-60.000004
30
1141.6029
11
-112.500015
21
-60.000004
31
1141.6029
0
LINE
8
0
10
-105.000015
20
-67.50001
30
1141.6029
11
-105.000015
21
-30.000002
31
1141.6029
0
LINE
8
0
10
-105.000015
20
-30.000002
30
1141.6029
11
-105.000015
21
7.500004
31
1141.6029
0
LINE
8
0
10
-112.500015
20
0.0
30
1141.6029
11
-75.00001
21
0.0
31
1141.6029
0
LINE
8
0
10
-75.00001
20
0.0
30
1141.6029
11
-37.500008
21
0.0
31
1141.6029
0
LINE
8
0
10
-37.500008
20
-60.000004
30
-298.39722
11
-82.50001
21
-60.000004
31
-298.39722
0
LINE
8
0
10
-75.00001
20
-60.000004
30
-313.39722
11
-75.00001
21
-60.000004
31
-238.39722
0
LINE
8
0
10
-75.00001
20
-60.000004
30
-238.39722
11
-75.00001
21
-60.000004
31
-178.39722
0
LINE
8
0
10
-75.00001
20
-60.000004
30
-178.39722
11
-75.00001
21
-60.000004
31
-118.39722
0
LINE
8
0
10
-75.00001
20
-60.000004
30
-118.39722
11
-75.00001
21
-60.000004
31
-58.397217
0
LINE
8
0
10
-75.00001
20
-60.000004
30
-58.397217
11
-75.00001
21
-60.000004
31
1.6027832
0
LINE
8
0
10
-75.00001
20
-60.000004
30
1.6027832
11
-75.00001
21
-60.000004
31
76.60278
0
LINE
8
0
10
-75.00001
20
-67.50001
30
61.602783
11
-75.00001
21
-30.000002
31
61.602783
0
LINE
8
0
10
-75.00001
20
-30.000002
30
61.602783
11
-75.00001
21
7.500004
31
61.602783
0
LINE
8
0
10
-75.00001
20
0.0
30
46.602783
11
-75.00001
21
0.0
31
121.60278
0
LINE
8
0
10
-75.00001
20
0.0
30
121.60278
11
-75.00001
21
0.0
31
181.60278
0
LINE
8
0
10
-75.00001
20
0.0
30
181.60278
11
-75.00001
21
0.0
31
241.60278
0
LINE
8
0
10
-75.00001
20
0.0
30
241.60278
11
-75.00001
21
0.0
31
301.60278
0
LINE
8
0
10
-75.00001
20
0.0
30
301.60278
11
-75.00001
21
0.0
31
361.60278
0
LINE
8
0
10
-75.00001
20
0.0
30
361.60278
11
-75.00001
21
0.0
31
421.60278
0
LINE
8
0
10
-75.00001
20
0.0
30
421.60278
11
-75.00001
21
0.0
31
481.6029
0
LINE
8
0
10
-75.00001
20
0.0
30
481.6029
11
-75.00001
21
0.0
31
541.6029
0
LINE
8
0
10
-75.00001
20
0.0
30
541.6029
11
-75.00001
21
0.0
31
601.6029
0
LINE
8
0
10
-75.00001
20
0.0
30
601.6029
11
-75.00001
21
0.0
31
661.6029
0
LINE
8
0
10
-75.00001
20
0.0
30
661.6029
11
-75.00001
21
0.0
31
721.6029
0
LINE
8
0
10
-75.00001
20
0.0
30
721.6029
11
-75.00001
21
0.0
31
781.6029
0
LINE
8
0
10
-75.00001
20
0.0
30
781.6029
11
-75.00001
21
0.0
31
841.6029
0
LINE
8
0
10
-75.00001
20
0.0
30
841.6029
11
-75.00001
21
0.0
31
901.6029
0
LINE
8
0
10
-75.00001
20
0.0
30
901.6029
11
-75.00001
21
0.0
31
961.6029
0
LINE
8
0
10
-75.00001
20
0.0
30
961.6029
11
-75.00001
21
0.0
31
1021.6029
0
LINE
8
0
10
-75.00001
20
0.0
30
1021.6029
11
-75.00001
21
0.0
31
1096.6029
0
LINE
8
0
10
-82.50001
20
0.0
30
1081.6029
11
-37.500008
21
0.0
31
1081.6029
0
LINE
8
0
10
-45.000008
20
-7.5
30
1081.6029
11
-45.000008
21
37.500004
31
1081.6029
0
LINE
8
0
10
22.5
20
0.0
30
-1498.3973
11
-15.0
21
0.0
31
-1498.3973
0
LINE
8
0
10
-15.0
20
0.0
30
-1498.3973
11
-52.500008
21
0.0
31
-1498.3973
0
LINE
8
0
10
-45.000008
20
0.0
30
-1513.3973
11
-45.000008
21
0.0
31
-1438.3973
0
LINE
8
0
10
-45.000008
20
0.0
30
-1438.3973
11
-45.000008
21
0.0
31
-1378.3973
0
LINE
8
0
10
-45.000008
20
0.0
30
-1378.3973
11
-45.000008
21
0.0
31
-1318.3973
0
LINE
8
0
10
-45.000008
20
0.0
30
-1318.3973
11
-45.000008
21
0.0
31
-1258.3973
0
LINE
8
0
10
-45.000008
20
0.0
30
-1258.3973
11
-45.000008
21
0.0
31
-1198.3973
0
LINE
8
0
10
-45.000008
20
0.0
30
-1198.3973
11
-45.000008
21
0.0
31
-1138.3973
0
LINE
8
0
10
-45.000008
20
0.0
30
-1138.3973
11
-45.000008
21
0.0
31
-1078.3972
0
LINE
8
0
10
-45.000008
20
0.0
30
-1078.3972
11
-45.000008
21
0.0
31
-1018.3973
0
LINE
8
0
10
-45.000008
20
0.0
30
-1018.3973
11
-45.000008
21
0.0
31
-958.3973
0
LINE
8
0
10
-45.000008
20
0.0
30
-958.3973
11
-45.000008
21
0.0
31
-898.3973
0
LINE
8
0
10
-45.000008
20
0.0
30
-898.3973
11
-45.000008
21
0.0
31
-838.3973
0
LINE
8
0
10
-45.000008
20
0.0
30
-838.3973
11
-45.000008
21
0.0
31
-778.3973
0
LINE
8
0
10
-45.000008
20
0.0
30
-778.3973
11
-45.000008
21
0.0
31
-718.3973
0
LINE
8
0
10
-45.000008
20
0.0
30
-718.3973
11
-45.000008
21
0.0
31
-658.3973
0
LINE
8
0
10
-45.000008
20
0.0
30
-658.3973
11
-45.000008
21
0.0
31
-598.3973
0
LINE
8
0
10
-45.000008
20
0.0
30
-598.3973
11
-45.000008
21
0.0
31
-523.3972
0
LINE
8
0
10
-37.500008
20
0.0
30
-538.3972
11
-75.00001
21
0.0
31
-538.3972
0
LINE
8
0
10
-75.00001
20
0.0
30
-538.3972
11
-112.500015
21
0.0
31
-538.3972
0
LINE
8
0
10
-105.000015
20
0.0
30
-553.3972
11
-105.000015
21
0.0
31
-478.39722
0
LINE
8
0
10
-105.000015
20
0.0
30
-478.39722
11
-105.000015
21
0.0
31
-418.39722
0
LINE
8
0
10
-105.000015
20
0.0
30
-418.39722
11
-105.000015
21
0.0
31
-358.39722
0
LINE
8
0
10
-105.000015
20
0.0
30
-358.39722
11
-105.000015
21
0.0
31
-298.39722
0
LINE
8
0
10
-105.000015
20
0.0
30
-298.39722
11
-105.000015
21
0.0
31
-238.39722
0
LINE
8
0
10
-105.000015
20
0.0
30
-238.39722
11
-105.000015
21
0.0
31
-178.39722
0
LINE
8
0
10
-105.000015
20
0.0
30
-178.39722
11
-105.000015
21
0.0
31
-118.39722
0
LINE
8
0
10
-105.000015
20
0.0
30
-118.39722
11
-105.000015
21
0.0
31
-58.397217
0
LINE
8
0
10
-105.000015
20
0.0
30
-58.397217
11
-105.000015
21
0.0
31
16.602783
0
LINE
8
0
10
-112.500015
20
0.0
30
1.6027832
11
-67.50001
21
0.0
31
1.6027832
0
LINE
8
0
10
-75.00001
20
-7.5
30
1.6027832
11
-75.00001
21
30.000004
31
1.6027832
0
LINE
8
0
10
-75.00001
20
30.000004
30
1.6027832
11
-75.00001
21
67.5
31
1.6027832
0
LINE
8
0
10
-75.00001
20
60.000004
30
-13.397217
11
-75.00001
21
60.000004
31
61.602783
0
LINE
8
0
10
-75.00001
20
60.000004
30
61.602783
11
-75.00001
21
60.000004
31
121.60278
0
LINE
8
0
10
-75.00001
20
60.000004
30
121.60278
11
-75.00001
21
60.000004
31
181.60278
0
LINE
8
0
10
-75.00001
20
60.000004
30
181.60278
11
-75.00001
21
60.000004
31
241.60278
0
LINE
8
0
10
-75.00001
20
60.000004
30
241.60278
11
-75.00001
21
60.000004
31
301.60278
0
LINE
8
0
10
-75.00001
20
60.000004
30
301.60278
11
-75.00001
21
60.000004
31
361.60278
0
LINE
8
0
10
-75.00001
20
60.000004
30
361.60278
11
-75.00001
21
60.000004
31
421.60278
0
LINE
8
0
10
-75.00001
20
60.000004
30
421.60278
11
-75.00001
21
60.000004
31
481.6029
0
LINE
8
0
10
-75.00001
20
60.000004
30
481.6029
11
-75.00001
21
60.000004
31
541.6029
0
LINE
8
0
10
-75.00001
20
60.000004
30
541.6029
11
-75.00001
21
60.000004
31
601.6029
0
LINE
8
0
10
-75.00001
20
60.000004
30
601.6029
11
-75.00001
21
60.000004
31
661.6029
0
LINE
8
0
10
-75.00001
20
60.000004
30
661.6029
11
-75.00001
21
60.000004
31
736.6029
0
LINE
8
0
10
-82.50001
20
60.000004
30
721.6029
11
-37.500008
21
60.000004
31
721.6029
0
LINE
8
0
10
-45.000008
20
60.000004
30
706.6029
11
-45.000008
21
60.000004
31
781.6029
0
LINE
8
0
10
-45.000008
20
60.000004
30
781.6029
11
-45.000008
21
60.000004
31
841.6029
0
LINE
8
0
10
-45.000008
20
60.000004
30
841.6029
11
-45.000008
21
60.000004
31
916.6029
0
LINE
8
0
10
-52.500008
20
60.000004
30
901.6029
11
-15.0
21
60.000004
31
901.6029
0
LINE
8
0
10
-15.0
20
60.000004
30
901.6029
11
22.5
21
60.000004
31
901.6029
0
LINE
8
0
10
15.0
20
60.000004
30
886.6029
11
15.0
21
60.000004
31
961.6029
0
LINE
8
0
10
15.0
20
60.000004
30
961.6029
11
15.0
21
60.000004
31
1021.6029
0
LINE
8
0
10
15.0
20
60.000004
30
1021.6029
11
15.0
21
60.000004
31
1081.6029
0
LINE
8
0
10
15.0
20
60.000004
30
1081.6029
11
15.0
21
60.000004
31
1156.6029
0
LINE
8
0
10
22.5
20
60.000004
30
1141.6029
11
-22.5
21
60.000004
31
1141.6029
0
LINE
8
0
10
22.5
20
-60.000004
30
-778.3973
11
-22.5
21
-60.000004
31
-778.3973
0
LINE
8
0
10
-15.0
20
-60.000004
30
-793.3973
11
-15.0
21
-60.000004
31
-718.3973
0
LINE
8
0
10
-15.0
20
-60.000004
30
-718.3973
11
-15.0
21
-60.000004
31
-658.3973
0
LINE
8
0
10
-15.0
20
-60.000004
30
-658.3973
11
-15.0
21
-60.000004
31
-583.3972
0
LINE
8
0
10
-15.0
20
-67.50001
30
-598.3973
11
-15.0
21
-30.000002
31
-598.3973
0
LINE
8
0
10
-15.0
20
-30.000002
30
-598.3973
11
-15.0
21
7.500004
31
-598.3973
0
LINE
8
0
10
-15.0
20
0.0
30
-613.3973
11
-15.0
21
0.0
31
-538.3972
0
LINE
8
0
10
-15.0
20
0.0
30
-538.3972
11
-15.0
21
0.0
31
-478.39722
0
LINE
8
0
10
-15.0
20
0.0
30
-478.39722
11
-15.0
21
0.0
31
-418.39722
0
LINE
8
0
10
-15.0
20
0.0
30
-418.39722
11
-15.0
21
0.0
31
-358.39722
0
LINE
8
0
10
-15.0
20
0.0
30
-358.39722
11
-15.0
21
0.0
31
-298.39722
0
LINE
8
0
10
-15.0
20
0.0
30
-298.39722
11
-15.0
21
0.0
31
-238.39722
0
LINE
8
0
10
-15.0
20
0.0
30
-238.39722
11
-15.0
21
0.0
31
-178.39722
0
LINE
8
0
10
-15.0
20
0.0
30
-178.39722
11
-15.0
21
0.0
31
-118.39722
0
LINE
8
0
10
-15.0
20
0.0
30
-118.39722
11
-15.0
21
0.0
31
-58.397217
0
LINE
8
0
10
-15.0
20
0.0
30
-58.397217
11
-15.0
21
0.0
31
1.6027832
0
LINE
8
0
10
-15.0
20
0.0
30
1.6027832
11
-15.0
21
0.0
31
61.602783
0
LINE
8
0
10
-15.0
20
0.0
30
61.602783
11
-15.0
21
0.0
31
121.60278
0
LINE
8
0
10
-15.0
20
0.0
30
121.60278
11
-15.0
21
0.0
31
181.60278
0
LINE
8
0
10
-15.0
20
0.0
30
181.60278
11
-15.0
21
0.0
31
241.60278
0
LINE
8
0
10
-15.0
20
0.0
30
241.60278
11
-15.0
21
0.0
31
301.60278
0
LINE
8
0
10
-15.0
20
0.0
30
301.60278
11
-15.0
21
0.0
31
361.60278
0
LINE
8
0
10
-15.0
20
0.0
30
361.60278
11
-15.0
21
0.0
31
421.60278
0
LINE
8
0
10
-15.0
20
0.0
30
421.60278
11
-15.0
21
0.0
31
481.6029
0
LINE
8
0
10
-15.0
20
0.0
30
481.6029
11
-15.0
21
0.0
31
541.6029
0
LINE
8
0
10
-15.0
20
0.0
30
541.6029
11
-15.0
21
0.0
31
601.6029
0
LINE
8
0
10
-15.0
20
0.0
30
601.6029
11
-15.0
21
0.0
31
661.6029
0
LINE
8
0
10
-15.0
20
0.0
30
661.6029
11
-15.0
21
0.0
31
721.6029
0
LINE
8
0
10
-15.0
20
0.0
30
721.6029
11
-15.0
21
0.0
31
781.6029
0
LINE
8
0
10
-15.0
20
0.0
30
781.6029
11
-15.0
21
0.0
31
841.6029
0
LINE
8
0
10
-15.0
20
0.0
30
841.6029
11
-15.0
21
0.0
31
901.6029
0
LINE
8
0
10
-15.0
20
0.0
30
901.6029
11
-15.0
21
0.0
31
961.6029
0
LINE
8
0
10
-15.0
20
0.0
30
961.6029
11
-15.0
21
0.0
31
1036.6029
0
LINE
8
0
10
-15.0
20
7.500004
30
1021.6029
11
-15.0
21
-37.5
31
1021.6029
0
LINE
8
0
10
-15.0
20
-30.000002
30
1021.6029
11
-45.000008
21
-30.000002
31
1021.6029
0
LINE
8
0
10
-45.000008
20
-30.000002
30
1021.6029
11
-82.50001
21
-30.000002
31
1021.6029
0
LINE
8
0
10
-75.00001
20
-30.000002
30
1036.6029
11
-75.00001
21
-30.000002
31
961.6029
0
LINE
8
0
10
-75.00001
20
-30.000002
30
961.6029
11
-75.00001
21
-30.000002
31
886.6029
0
LINE
8
0
10
-75.00001
20
-22.5
30
901.6029
11
-75.00001
21
-67.50001
31
901.6029
0
LINE
8
0
10
-75.00001
20
-60.000004
30
886.6029
11
-75.00001
21
-60.000004
31
961.6029
0
LINE
8
0
10
-75.00001
20
-60.000004
30
961.6029
11
-75.00001
21
-60.000004
31
1036.6029
0
LINE
8
0
10
-67.50001
20
-60.000004
30
1021.6029
11
-112.500015
21
-60.000004
31
1021.6029
0
LINE
8
0
10
-105.000015
20
-60.000004
30
1036.6029
11
-105.000015
21
-60.000004
31
961.6029
0
LINE
8
0
10
-105.000015
20
-60.000004
30
961.6029
11
-105.000015
21
-60.000004
31
901.6029
0
LINE
8
0
10
-105.000015
20
-60.000004
30
901.6029
11
-105.000015
21
-60.000004
31
826.6029
0
LINE
8
0
10
-105.000015
20
-67.50001
30
841.6029
11
-105.000015
21
-22.5
31
841.6029
0
LINE
8
0
10
-105.000015
20
-30.000002
30
826.6029
11
-105.000015
21
-30.000002
31
901.6029
0
LINE
8
0
10
-105.000015
20
-30.000002
30
901.6029
11
-105.000015
21
-30.000002
31
961.6029
0
LINE
8
0
10
-105.000015
20
-30.000002
30
961.6029
11
-105.000015
21
-30.000002
31
1036.6029
0
LINE
8
0
10
-97.50001
20
-30.000002
30
1021.6029
11
-142.50002
21
-30.000002
31
1021.6029
0
LINE
8
0
10
-135.00002
20
-37.5
30
1021.6029
11
-135.00002
21
0.0
31
1021.6029
0
LINE
8
0
10
-135.00002
20
0.0
30
1021.6029
11
-135.00002
21
37.500004
31
1021.6029
0
LINE
8
0
10
-135.00002
20
30.000004
30
1006.6029
11
-135.00002
21
30.000004
31
1096.6029
0
LINE
8
0
10
-142.50002
20
30.000004
30
1081.6029
11
-97.50001
21
30.000004
31
1081.6029
0
LINE
8
0
10
-105.000015
20
30.000004
30
1066.6029
11
-105.000015
21
30.000004
31
1156.6029
0
LINE
8
0
10
-112.500015
20
30.000004
30
1141.6029
11
-67.50001
21
30.000004
31
1141.6029
0
LINE
8
0
10
-67.50001
20
0.0
30
541.6029
11
-105.000015
21
0.0
31
541.6029
0
LINE
8
0
10
-37.500008
20
0.0
30
-598.3973
11
-75.00001
21
0.0
31
-598.3973
0
LINE
8
0
10
-15.0
20
-60.000004
30
301.60278
11
-45.000008
21
-60.000004
31
301.60278
0
LINE
8
0
10
-45.000008
20
-67.50001
30
301.60278
11
-45.000008
21
-30.000002
31
301.60278
0
LINE
8
0
10
-15.0
20
-60.000004
30
181.60278
11
-15.0
21
-60.000004
31
121.60278
0
LINE
8
0
10
-15.0
20
-60.000004
30
121.60278
11
-15.0
21
-60.000004
31
46.602783
0
LINE
8
0
10
-82.50001
20
-30.000002
30
1081.6029
11
-37.500008
21
-30.000002
31
1081.6029
0
LINE
8
0
10
-45.000008
20
-22.5
30
1081.6029
11
-45.000008
21
-67.50001
31
1081.6029
0
LINE
8
0
10
-82.50001
20
-30.000002
30
1141.6029
11
-45.000008
21
-30.000002
31
1141.6029
0
LINE
8
0
10
-45.000008
20
-30.000002
30
1141.6029
11
-15.0
21
-30.000002
31
1141.6029
0
LINE
8
0
10
-75.00001
20
-30.000002
30
1141.6029
11
-75.00001
21
-30.000002
31
1216.6029
0
LINE
8
0
10
-75.00001
20
-30.000002
30
1201.6029
11
-75.00001
21
-67.50001
31
1201.6029
0
LINE
8
0
10
-105.000015
20
-30.000002
30
1081.6029
11
-105.000015
21
7.500004
31
1081.6029
0
LINE
8
0
10
-105.000015
20
0.0
30
1096.6029
11
-105.000015
21
0.0
31
1021.6029
0
LINE
8
0
10
-135.00002
20
-67.50001
30
601.6029
11
-135.00002
21
-30.000002
31
601.6029
0
LINE
8
0
10
-135.00002
20
-30.000002
30
601.6029
11
-135.00002
21
7.500004
31
601.6029
0
LINE
8
0
10
-67.50001
20
-30.000002
30
61.602783
11
-105.000015
21
-30.000002
31
61.602783
0
LINE
8
0
10
-105.000015
20
-30.000002
30
61.602783
11
-142.50002
21
-30.000002
31
61.602783
0
LINE
8
0
10
-15.0
20
-30.000002
30
1021.6029
11
15.0
21
-30.000002
31
1021.6029
0
LINE
8
0
10
15.0
20
-30.000002
30
1021.6029
11
45.0
21
-30.000002
31
1021.6029
0
LINE
8
0
10
-15.0
20
0.0
30
61.602783
11
-15.0
21
30.000004
31
61.602783
0
LINE
8
0
10
-15.0
20
30.000004
30
61.602783
11
15.0
21
30.000004
31
61.602783
0
LINE
8
0
10
-15.0
20
0.0
30
-118.39722
11
-45.000008
21
0.0
31
-118.39722
0
LINE
8
0
10
-45.000008
20
0.0
30
-118.39722
11
-82.50001
21
0.0
31
-118.39722
0
LINE
8
0
10
-15.0
20
-60.000004
30
901.6029
11
-52.500008
21
-60.000004
31
901.6029
0
LINE
8
0
10
-45.000008
20
-67.50001
30
901.6029
11
-45.000008
21
-30.000002
31
901.6029
0
LINE
8
0
10
-45.000008
20
-30.000002
30
901.6029
11
-45.000008
21
0.0
31
901.6029
0
LINE
8
0
10
-142.50002
20
-60.000004
30
721.6029
11
-97.50001
21
-60.000004
31
721.6029
0
LINE
8
0
10
-105.000015
20
-60.000004
30
721.6029
11
-105.000015
21
-60.000004
31
796.6029
0
LINE
8
0
10
-112.500015
20
-60.000004
30
781.6029
11
-75.00001
21
-60.000004
31
781.6029
0
LINE
8
0
10
-75.00001
20
0.0
30
241.60278
11
-37.500008
21
0.0
31
241.60278
0
LINE
8
0
10
-45.000008
20
0.0
30
256.60278
11
-45.000008
21
0.0
31
181.60278
0
LINE
8
0
10
-45.000008
20
0.0
30
181.60278
11
-45.000008
21
0.0
31
106.60278
0
LINE
8
0
10
-75.00001
20
0.0
30
241.60278
11
-75.00001
21
-37.5
31
241.60278
0
LINE
8
0
10
-75.00001
20
-30.000002
30
226.60278
11
-75.00001
21
-30.000002
31
301.60278
0
LINE
8
0
10
-75.00001
20
-30.000002
30
301.60278
11
-75.00001
21
-30.000002
31
361.60278
0
LINE
8
0
10
-52.500008
20
0.0
30
-1318.3973
11
-15.0
21
0.0
31
-1318.3973
0
LINE
8
0
10
-15.0
20
0.0
30
-1318.3973
11
15.0
21
0.0
31
-1318.3973
0
LINE
8
0
10
15.0
20
-7.5
30
-1318.3973
11
15.0
21
37.500004
31
-1318.3973
0
LINE
8
0
10
-135.00002
20
-67.50001
30
721.6029
11
-135.00002
21
-30.000002
31
721.6029
0
LINE
8
0
10
-135.00002
20
-30.000002
30
721.6029
11
-135.00002
21
7.500004
31
721.6029
0
LINE
8
0
10
-135.00002
20
0.0
30
706.6029
11
-135.00002
21
0.0
31
796.6029
0
LINE
8
0
10
-135.00002
20
0.0
30
781.6029
11
-97.50001
21
0.0
31
781.6029
0
LINE
8
0
10
-135.00002
20
-67.50001
30
841.6029
11
-135.00002
21
-30.000002
31
841.6029
0
LINE
8
0
10
-135.00002
20
-30.000002
30
841.6029
11
-135.00002
21
0.0
31
841.6029
0
LINE
8
0
10
-135.00002
20
0.0
30
841.6029
11
-135.00002
21
37.500004
31
841.6029
0
LINE
8
0
10
-127.500015
20
30.000004
30
841.6029
11
-172.50002
21
30.000004
31
841.6029
0
LINE
8
0
10
-105.000015
20
0.0
30
541.6029
11
-142.50002
21
0.0
31
541.6029
0
LINE
8
0
10
-75.00001
20
0.0
30
541.6029
11
-75.00001
21
-37.5
31
541.6029
0
LINE
8
0
10
-105.000015
20
0.0
30
526.6029
11
-105.000015
21
0.0
31
616.6029
0
LINE
8
0
10
-75.00001
20
0.0
30
541.6029
11
-75.00001
21
37.500004
31
541.6029
0
LINE
8
0
10
-75.00001
20
0.0
30
-583.3972
11
-75.00001
21
0.0
31
-673.3973
0
LINE
8
0
10
-75.00001
20
0.0
30
-598.3973
11
-112.500015
21
0.0
31
-598.3973
0
LINE
8
0
10
-45.000008
20
0.0
30
-598.3973
11
-45.000008
21
37.500004
31
-598.3973
0
LINE
8
0
10
-75.00001
20
0.0
30
-598.3973
11
-75.00001
21
-37.5
31
-598.3973
0
LINE
8
0
10
-75.00001
20
0.0
30
-598.3973
11
-75.00001
21
37.500004
31
-598.3973
0
LINE
8
0
10
-45.000008
20
0.0
30
-598.3973
11
-45.000008
21
-37.5
31
-598.3973
0
LINE
8
0
10
-15.0
20
-67.50001
30
301.60278
11
-15.0
21
-22.5
31
301.60278
0
LINE
8
0
10
-45.000008
20
-60.000004
30
301.60278
11
-82.50001
21
-60.000004
31
301.60278
0
LINE
8
0
10
-45.000008
20
-30.000002
30
301.60278
11
-45.000008
21
-30.000002
31
226.60278
0
LINE
8
0
10
-15.0
20
-60.000004
30
301.60278
11
22.5
21
-60.000004
31
301.60278
0
LINE
8
0
10
-45.000008
20
-60.000004
30
301.60278
11
-45.000008
21
-60.000004
31
226.60278
0
LINE
8
0
10
-45.000008
20
-60.000004
30
301.60278
11
-45.000008
21
-60.000004
31
376.60278
0
LINE
8
0
10
-45.000008
20
-30.000002
30
301.60278
11
-45.000008
21
7.500004
31
301.60278
0
LINE
8
0
10
-45.000008
20
-30.000002
30
301.60278
11
-45.000008
21
-30.000002
31
376.60278
0
LINE
8
0
10
-15.0
20
-60.000004
30
181.60278
11
22.5
21
-60.000004
31
181.60278
0
LINE
8
0
10
-15.0
20
-67.50001
30
181.60278
11
-15.0
21
-22.5
31
181.60278
0
LINE
8
0
10
-22.5
20
-60.000004
30
121.60278
11
22.5
21
-60.000004
31
121.60278
0
LINE
8
0
10
-22.5
20
-60.000004
30
61.602783
11
22.5
21
-60.000004
31
61.602783
0
LINE
8
0
10
-45.000008
20
-60.000004
30
1081.6029
11
-45.000008
21
-60.000004
31
1006.6029
0
LINE
8
0
10
-45.000008
20
-60.000004
30
1081.6029
11
-45.000008
21
-60.000004
31
1156.6029
0
LINE
8
0
10
-45.000008
20
-30.000002
30
1126.6029
11
-45.000008
21
-30.000002
31
1216.6029
0
LINE
8
0
10
-15.0
20
-30.000002
30
1141.6029
11
22.5
21
-30.000002
31
1141.6029
0
LINE
8
0
10
-15.0
20
-30.000002
30
1126.6029
11
-15.0
21
-30.000002
31
1216.6029
0
LINE
8
0
10
-75.00001
20
-30.000002
30
1201.6029
11
-75.00001
21
7.500004
31
1201.6029
0
LINE
8
0
10
-67.50001
20
-30.000002
30
1201.6029
11
-112.500015
21
-30.000002
31
1201.6029
0
LINE
8
0
10
-97.50001
20
0.0
30
1081.6029
11
-142.50002
21
0.0
31
1081.6029
0
LINE
8
0
10
-105.000015
20
0.0
30
1021.6029
11
-105.000015
21
0.0
31
946.6029
0
LINE
8
0
10
-135.00002
20
-30.000002
30
601.6029
11
-97.50001
21
-30.000002
31
601.6029
0
LINE
8
0
10
-135.00002
20
-30.000002
30
601.6029
11
-172.50002
21
-30.000002
31
601.6029
0
LINE
8
0
10
-135.00002
20
-30.000002
30
601.6029
11
-135.00002
21
-30.000002
31
676.6029
0
LINE
8
0
10
-135.00002
20
-30.000002
30
601.6029
11
-135.00002
21
-30.000002
31
526.6029
0
LINE
8
0
10
-135.00002
20
0.0
30
586.6029
11
-135.00002
21
0.0
31
676.6029
0
LINE
8
0
10
-135.00002
20
-30.000002
30
61.602783
11
-135.00002
21
-30.000002
31
136.60278
0
LINE
8
0
10
-105.000015
20
-30.000002
30
61.602783
11
-105.000015
21
-30.000002
31
136.60278
0
LINE
8
0
10
-75.00001
20
-30.000002
30
61.602783
11
-75.00001
21
-30.000002
31
-13.397217
0
LINE
8
0
10
-105.000015
20
-30.000002
30
61.602783
11
-105.000015
21
7.500004
31
61.602783
0
LINE
8
0
10
-135.00002
20
-30.000002
30
61.602783
11
-135.00002
21
-30.000002
31
-13.397217
0
LINE
8
0
10
-105.000015
20
-30.000002
30
61.602783
11
-105.000015
21
-67.50001
31
61.602783
0
LINE
8
0
10
-105.000015
20
-30.000002
30
61.602783
11
-105.000015
21
-30.000002
31
-13.397217
0
LINE
8
0
10
-75.00001
20
-30.000002
30
61.602783
11
-75.00001
21
-30.000002
31
136.60278
0
LINE
8
0
10
-135.00002
20
-30.000002
30
61.602783
11
-135.00002
21
-67.50001
31
61.602783
0
LINE
8
0
10
-135.00002
20
-30.000002
30
61.602783
11
-135.00002
21
7.500004
31
61.602783
0
LINE
8
0
10
45.0
20
-30.000002
30
1021.6029
11
82.5
21
-30.000002
31
1021.6029
0
LINE
8
0
10
15.0
20
-37.5
30
1021.6029
11
15.0
21
7.500004
31
1021.6029
0
LINE
8
0
10
45.0
20
-30.000002
30
1006.6029
11
45.0
21
-30.000002
31
1096.6029
0
LINE
8
0
10
-15.0
20
-30.000002
30
1036.6029
11
-15.0
21
-30.000002
31
946.6029
0
LINE
8
0
10
45.0
20
-30.000002
30
1021.6029
11
45.0
21
7.500004
31
1021.6029
0
LINE
8
0
10
45.0
20
-30.000002
30
1021.6029
11
45.0
21
-67.50001
31
1021.6029
0
LINE
8
0
10
15.0
20
-30.000002
30
1006.6029
11
15.0
21
-30.000002
31
1096.6029
0
LINE
8
0
10
-15.0
20
30.000004
30
76.60278
11
-15.0
21
30.000004
31
-13.397217
0
LINE
8
0
10
15.0
20
30.000004
30
61.602783
11
52.5
21
30.000004
31
61.602783
0
LINE
8
0
10
-15.0
20
30.000004
30
61.602783
11
-15.0
21
67.5
31
61.602783
0
LINE
8
0
10
-15.0
20
30.000004
30
61.602783
11
-52.500008
21
30.000004
31
61.602783
0
LINE
8
0
10
-15.0
20
0.0
30
61.602783
11
-52.500008
21
0.0
31
61.602783
0
LINE
8
0
10
-15.0
20
0.0
30
61.602783
11
22.5
21
0.0
31
61.602783
0
LINE
8
0
10
-15.0
20
0.0
30
61.602783
11
-15.0
21
-37.5
31
61.602783
0
LINE
8
0
10
15.0
20
30.000004
30
76.60278
11
15.0
21
30.000004
31
-13.397217
0
LINE
8
0
10
15.0
20
22.500004
30
61.602783
11
15.0
21
67.5
31
61.602783
0
LINE
8
0
10
-15.0
20
0.0
30
-118.39722
11
-15.0
21
-37.5
31
-118.39722
0
LINE
8
0
10
-75.00001
20
0.0
30
-118.39722
11
-75.00001
21
-37.5
31
-118.39722
0
LINE
8
0
10
-15.0
20
0.0
30
-118.39722
11
-15.0
21
37.500004
31
-118.39722
0
LINE
8
0
10
-75.00001
20
0.0
30
-103.39722
11
-75.00001
21
0.0
31
-193.39722
0
LINE
8
0
10
-45.000008
20
0.0
30
-133.39722
11
-45.000008
21
0.0
31
-43.397217
0
LINE
8
0
10
-45.000008
20
0.0
30
-118.39722
11
-45.000008
21
-37.5
31
-118.39722
0
LINE
8
0
10
-15.0
20
0.0
30
-118.39722
11
22.5
21
0.0
31
-118.39722
0
LINE
8
0
10
-75.00001
20
0.0
30
-118.39722
11
-75.00001
21
37.500004
31
-118.39722
0
LINE
8
0
10
-45.000008
20
0.0
30
-118.39722
11
-45.000008
21
37.500004
31
-118.39722
0
LINE
8
0
10
-15.0
20
-67.50001
30
901.6029
11
-15.0
21
-22.5
31
901.6029
0
LINE
8
0
10
-45.000008
20
-60.000004
30
901.6029
11
-45.000008
21
-60.000004
31
976.6029
0
LINE
8
0
10
-45.000008
20
0.0
30
916.6029
11
-45.000008
21
0.0
31
826.6029
0
LINE
8
0
10
-45.000008
20
0.0
30
901.6029
11
-45.000008
21
37.500004
31
901.6029
0
LINE
8
0
10
-45.000008
20
-30.000002
30
901.6029
11
-45.000008
21
-30.000002
31
976.6029
0
LINE
8
0
10
-15.0
20
-60.000004
30
901.6029
11
22.5
21
-60.000004
31
901.6029
0
LINE
8
0
10
-45.000008
20
-30.000002
30
901.6029
11
-45.000008
21
-30.000002
31
826.6029
0
LINE
8
0
10
-45.000008
20
-60.000004
30
901.6029
11
-45.000008
21
-60.000004
31
826.6029
0
LINE
8
0
10
-105.000015
20
-67.50001
30
781.6029
11
-105.000015
21
-22.5
31
781.6029
0
LINE
8
0
10
-105.000015
20
-67.50001
30
721.6029
11
-105.000015
21
-22.5
31
721.6029
0
LINE
8
0
10
-75.00001
20
-60.000004
30
781.6029
11
-37.500008
21
-60.000004
31
781.6029
0
LINE
8
0
10
-105.000015
20
-60.000004
30
721.6029
11
-105.000015
21
-60.000004
31
646.6029
0
LINE
8
0
10
-75.00001
20
0.0
30
241.60278
11
-112.500015
21
0.0
31
241.60278
0
LINE
8
0
10
-45.000008
20
-7.5
30
241.60278
11
-45.000008
21
37.500004
31
241.60278
0
LINE
8
0
10
-45.000008
20
7.500004
30
181.60278
11
-45.000008
21
-37.5
31
181.60278
0
LINE
8
0
10
-75.00001
20
-30.000002
30
361.60278
11
-75.00001
21
-30.000002
31
436.6029
0
LINE
8
0
10
-75.00001
20
-22.5
30
361.60278
11
-75.00001
21
-67.50001
31
361.60278
0
LINE
8
0
10
-67.50001
20
-30.000002
30
301.60278
11
-112.500015
21
-30.000002
31
301.60278
0
LINE
8
0
10
-67.50001
20
-30.000002
30
361.60278
11
-112.500015
21
-30.000002
31
361.60278
0
LINE
8
0
10
-75.00001
20
0.0
30
241.60278
11
-75.00001
21
37.500004
31
241.60278
0
LINE
8
0
10
15.0
20
0.0
30
-1318.3973
11
15.0
21
0.0
31
-1393.3973
0
LINE
8
0
10
-45.000008
20
0.0
30
-1318.3973
11
-45.000008
21
37.500004
31
-1318.3973
0
LINE
8
0
10
-15.0
20
0.0
30
-1303.3973
11
-15.0
21
0.0
31
-1393.3973
0
LINE
8
0
10
-45.000008
20
0.0
30
-1318.3973
11
-45.000008
21
-37.5
31
-1318.3973
0
LINE
8
0
10
-15.0
20
7.500004
30
-1318.3973
11
-15.0
21
-37.5
31
-1318.3973
0
LINE
8
0
10
15.0
20
0.0
30
-1318.3973
11
52.5
21
0.0
31
-1318.3973
0
LINE
8
0
10
22.5
20
30.000004
30
-1318.3973
11
-22.5
21
30.000004
31
-1318.3973
0
LINE
8
0
10
15.0
20
30.000004
30
-1333.3973
11
15.0
21
30.000004
31
-1243.3973
0
LINE
8
0
10
15.0
20
0.0
30
-1318.3973
11
15.0
21
0.0
31
-1243.3973
0
LINE
8
0
10
-135.00002
20
0.0
30
781.6029
11
-172.50002
21
0.0
31
781.6029
0
LINE
8
0
10
-135.00002
20
0.0
30
781.6029
11
-135.00002
21
-37.5
31
781.6029
0
LINE
8
0
10
-105.000015
20
0.0
30
796.6029
11
-105.000015
21
0.0
31
706.6029
0
LINE
8
0
10
-135.00002
20
0.0
30
781.6029
11
-135.00002
21
37.500004
31
781.6029
0
LINE
8
0
10
-127.500015
20
-30.000002
30
721.6029
11
-172.50002
21
-30.000002
31
721.6029
0
LINE
8
0
10
-135.00002
20
0.0
30
826.6029
11
-135.00002
21
0.0
31
916.6029
0
LINE
8
0
10
-142.50002
20
0.0
30
841.6029
11
-97.50001
21
0.0
31
841.6029
0
LINE
8
0
10
-165.00002
20
22.500004
30
841.6029
11
-165.00002
21
67.5
31
841.6029
0
LINE
8
0
10
-127.500015
20
-30.000002
30
841.6029
11
-172.50002
21
-30.000002
31
841.6029
0
3DFACE
8
0
10
-501.0
20
-496.5
30
-886.81006
11
-491.0
21
-496.5
31
-886.81006
12
-491.0
22
-480.5
32
-886.81006
13
-490.9999
23
-480.4999
33
-886.80994
0
3DFACE
8
0
10
-491.0
20
-480.5
30
-886.81006
11
-501.0
21
-480.5
31
-886.81006
12
-501.0
22
-496.5
32
-886.81006
13
-500.9999
23
-496.4999
33
-886.80994
0
3DFACE
8
0
10
-489.0
20
-496.5
30
-886.81006
11
-479.5
21
-496.5
31
-886.81006
12
-479.5
22
-485.5
32
-886.81006
13
-479.4999
23
-485.4999
33
-886.80994
0
3DFACE
8
0
10
-479.5
20
-485.5
30
-886.81006
11
-489.0
21
-485.5
31
-886.81006
12
-489.0
22
-496.5
32
-886.81006
13
-488.9999
23
-496.4999
33
-886.80994
0
3DFACE
8
0
10
-477.5
20
-496.5
30
-886.81006
11
-467.5
21
-496.5
31
-886.81006
12
-467.5
22
-485.5
32
-886.81006
13
-467.4999
23
-485.4999
33
-886.80994
0
3DFACE
8
0
10
-467.5
20
-485.5
30
-886.81006
11
-477.5
21
-485.5
31
-886.81006
12
-477.5
22
-496.5
32
-886.81006
13
-477.4999
23
-496.4999
33
-886.80994
0
3DFACE
8
0
10
-465.5
20
-496.5
30
-886.81006
11
-456.0
21
-496.5
31
-886.81006
12
-456.0
22
-485.5
32
-886.81006
13
-455.9999
23
-485.4999
33
-886.80994
0
3DFACE
8
0
10
-456.0
20
-485.5
30
-886.81006
11
-465.5
21
-485.5
31
-886.81006
12
-465.5
22
-496.5
32
-886.81006
13
-465.4999
23
-496.4999
33
-886.80994
0
3DFACE
8
0
10
-453.5
20
-496.5
30
-886.81006
11
-445.5
21
-496.5
31
-886.81006
12
-445.5
22
-485.5
32
-886.81006
13
-445.4999
23
-485.4999
33
-886.80994
0
3DFACE
8
0
10
-445.5
20
-485.5
30
-886.81006
11
-453.5
21
-485.5
31
-886.81006
12
-453.5
22
-496.5
32
-886.81006
13
-453.4999
23
-496.4999
33
-886.80994
0
3DFACE
8
0
10
-445.0
20
-496.5
30
-886.81006
11
-435.0
21
-496.5
31
-886.81006
12
-435.0
22
-485.5
32
-886.81006
13
-434.9999
23
-485.4999
33
-886.80994
0
3DFACE
8
0
10
-435.0
20
-485.5
30
-886.81006
11
-445.0
21
-485.5
31
-886.81006
12
-445.0
22
-496.5
32
-886.81006
13
-444.9999
23
-496.4999
33
-886.80994
0
3DFACE
8
0
10
-433.5
20
-501.0
30
-886.81006
11
-425.0
21
-501.0
31
-886.81006
12
-425.0
22
-485.5
32
-886.81006
13
-424.9999
23
-485.4999
33
-886.80994
0
3DFACE
8
0
10
-425.0
20
-485.5
30
-886.81006
11
-433.5
21
-485.5
31
-886.81006
12
-433.5
22
-501.0
32
-886.81006
13
-433.4999
23
-500.9999
33
-886.80994
0
3DFACE
8
0
10
-425.0
20
-501.0
30
-886.81006
11
-420.0
21
-501.0
31
-886.81006
12
-420.0
22
-485.5
32
-886.81006
13
-419.9999
23
-485.4999
33
-886.80994
0
3DFACE
8
0
10
-420.0
20
-485.5
30
-886.81006
11
-425.0
21
-485.5
31
-886.81006
12
-425.0
22
-501.0
32
-886.81006
13
-424.9999
23
-500.9999
33
-886.80994
0
3DFACE
8
0
10
-417.0
20
-496.5
30
-886.81006
11
-407.0
21
-496.5
31
-886.81006
12
-407.0
22
-485.5
32
-886.81006
13
-406.9999
23
-485.4999
33
-886.80994
0
3DFACE
8
0
10
-407.0
20
-485.5
30
-886.81006
11
-417.0
21
-485.5
31
-886.81006
12
-417.0
22
-496.5
32
-886.81006
13
-416.9999
23
-496.4999
33
-886.80994
0
3DFACE
8
0
10
-405.0
20
-496.5
30
-886.81006
11
-395.0
21
-496.5
31
-886.81006
12
-395.0
22
-485.5
32
-886.81006
13
-394.9999
23
-485.4999
33
-886.80994
0
3DFACE
8
0
10
-395.0
20
-485.5
30
-886.81006
11
-405.0
21
-485.5
31
-886.81006
12
-405.0
22
-496.5
32
-886.81006
13
-404.9999
23
-496.4999
33
-886.80994
0
3DFACE
8
0
10
-393.0
20
-496.5
30
-886.81006
11
-384.0
21
-496.5
31
-886.81006
12
-384.0
22
-485.5
32
-886.81006
13
-383.9999
23
-485.4999
33
-886.80994
0
3DFACE
8
0
10
-384.0
20
-485.5
30
-886.81006
11
-393.0
21
-485.5
31
-886.81006
12
-393.0
22
-496.5
32
-886.81006
13
-392.9999
23
-496.4999
33
-886.80994
0
3DFACE
8
0
10
-382.0
20
-493.5
30
-886.81006
11
-380.0
21
-493.5
31
-886.81006
12
-380.0
22
-485.5
32
-886.81006
13
-379.9999
23
-485.4999
33
-886.80994
0
3DFACE
8
0
10
-380.0
20
-485.5
30
-886.81006
11
-382.0
21
-485.5
31
-886.81006
12
-382.0
22
-493.5
32
-886.81006
13
-381.9999
23
-493.4999
33
-886.80994
0
3DFACE
8
0
10
-370.5
20
-501.5
30
-886.81006
11
-361.0
21
-501.5
31
-886.81006
12
-361.0
22
-485.5
32
-886.81006
13
-360.9999
23
-485.4999
33
-886.80994
0
3DFACE
8
0
10
-361.0
20
-485.5
30
-886.81006
11
-370.5
21
-485.5
31
-886.81006
12
-370.5
22
-501.5
32
-886.81006
13
-370.4999
23
-501.4999
33
-886.80994
0
3DFACE
8
0
10
-501.0
20
-436.5
30
-886.81006
11
-491.0
21
-436.5
31
-886.81006
12
-491.0
22
-425.5
32
-886.81006
13
-490.9999
23
-425.4999
33
-886.80994
0
3DFACE
8
0
10
-491.0
20
-425.5
30
-886.81006
11
-501.0
21
-425.5
31
-886.81006
12
-501.0
22
-436.5
32
-886.81006
13
-500.9999
23
-436.4999
33
-886.80994
0
3DFACE
8
0
10
-489.0
20
-436.5
30
-886.81006
11
-479.0
21
-436.5
31
-886.81006
12
-479.0
22
-425.5
32
-886.81006
13
-478.9999
23
-425.4999
33
-886.80994
0
3DFACE
8
0
10
-479.0
20
-425.5
30
-886.81006
11
-489.0
21
-425.5
31
-886.81006
12
-489.0
22
-436.5
32
-886.81006
13
-488.9999
23
-436.4999
33
-886.80994
0
3DFACE
8
0
10
-477.0
20
-436.5
30
-886.81006
11
-462.5
21
-436.5
31
-886.81006
12
-462.5
22
-425.5
32
-886.81006
13
-462.4999
23
-425.4999
33
-886.80994
0
3DFACE
8
0
10
-462.5
20
-425.5
30
-886.81006
11
-477.0
21
-425.5
31
-886.81006
12
-477.0
22
-436.5
32
-886.81006
13
-476.9999
23
-436.4999
33
-886.80994
0
3DFACE
8
0
10
-460.5
20
-442.0
30
-886.81006
11
-450.5
21
-442.0
31
-886.81006
12
-450.5
22
-425.5
32
-886.81006
13
-450.4999
23
-425.4999
33
-886.80994
0
3DFACE
8
0
10
-450.5
20
-425.5
30
-886.81006
11
-460.5
21
-425.5
31
-886.81006
12
-460.5
22
-442.0
32
-886.81006
13
-460.4999
23
-441.9999
33
-886.80994
0
3DFACE
8
0
10
-448.5
20
-436.5
30
-886.81006
11
-439.0
21
-436.5
31
-886.81006
12
-439.0
22
-425.5
32
-886.81006
13
-438.9999
23
-425.4999
33
-886.80994
0
3DFACE
8
0
10
-439.0
20
-425.5
30
-886.81006
11
-448.5
21
-425.5
31
-886.81006
12
-448.5
22
-436.5
32
-886.81006
13
-448.4999
23
-436.4999
33
-886.80994
0
3DFACE
8
0
10
-436.5
20
-436.5
30
-886.81006
11
-428.5
21
-436.5
31
-886.81006
12
-428.5
22
-425.5
32
-886.81006
13
-428.4999
23
-425.4999
33
-886.80994
0
3DFACE
8
0
10
-428.5
20
-425.5
30
-886.81006
11
-436.5
21
-425.5
31
-886.81006
12
-436.5
22
-436.5
32
-886.81006
13
-436.4999
23
-436.4999
33
-886.80994
0
3DFACE
8
0
10
-420.5
20
-436.5
30
-886.81006
11
-410.5
21
-436.5
31
-886.81006
12
-410.5
22
-425.5
32
-886.81006
13
-410.4999
23
-425.4999
33
-886.80994
0
3DFACE
8
0
10
-410.5
20
-425.5
30
-886.81006
11
-420.5
21
-425.5
31
-886.81006
12
-420.5
22
-436.5
32
-886.81006
13
-420.4999
23
-436.4999
33
-886.80994
0
3DFACE
8
0
10
-409.5
20
-442.0
30
-886.81006
11
-401.0
21
-442.0
31
-886.81006
12
-401.0
22
-425.5
32
-886.81006
13
-400.9999
23
-425.4999
33
-886.80994
0
3DFACE
8
0
10
-401.0
20
-425.5
30
-886.81006
11
-409.5
21
-425.5
31
-886.81006
12
-409.5
22
-442.0
32
-886.81006
13
-409.4999
23
-441.9999
33
-886.80994
0
3DFACE
8
0
10
-393.0
20
-436.5
30
-886.81006
11
-383.5
21
-436.5
31
-886.81006
12
-383.5
22
-425.5
32
-886.81006
13
-383.4999
23
-425.4999
33
-886.80994
0
3DFACE
8
0
10
-383.5
20
-425.5
30
-886.81006
11
-393.0
21
-425.5
31
-886.81006
12
-393.0
22
-436.5
32
-886.81006
13
-392.9999
23
-436.4999
33
-886.80994
0
3DFACE
8
0
10
-381.5
20
-442.0
30
-886.81006
11
-371.5
21
-442.0
31
-886.81006
12
-371.5
22
-425.5
32
-886.81006
13
-371.4999
23
-425.4999
33
-886.80994
0
3DFACE
8
0
10
-371.5
20
-425.5
30
-886.81006
11
-381.5
21
-425.5
31
-886.81006
12
-381.5
22
-442.0
32
-886.81006
13
-381.4999
23
-441.9999
33
-886.80994
0
3DFACE
8
0
10
-369.5
20
-436.5
30
-886.81006
11
-359.5
21
-436.5
31
-886.81006
12
-359.5
22
-420.5
32
-886.81006
13
-359.4999
23
-420.4999
33
-886.80994
0
3DFACE
8
0
10
-359.5
20
-420.5
30
-886.81006
11
-369.5
21
-420.5
31
-886.81006
12
-369.5
22
-436.5
32
-886.81006
13
-369.4999
23
-436.4999
33
-886.80994
0
3DFACE
8
0
10
-357.5
20
-436.5
30
-886.81006
11
-348.0
21
-436.5
31
-886.81006
12
-348.0
22
-425.5
32
-886.81006
13
-347.9999
23
-425.4999
33
-886.80994
0
3DFACE
8
0
10
-348.0
20
-425.5
30
-886.81006
11
-357.5
21
-425.5
31
-886.81006
12
-357.5
22
-436.5
32
-886.81006
13
-357.4999
23
-436.4999
33
-886.80994
0
3DFACE
8
0
10
-346.0
20
-436.5
30
-886.81006
11
-337.0
21
-436.5
31
-886.81006
12
-337.0
22
-425.5
32
-886.81006
13
-336.9999
23
-425.4999
33
-886.80994
0
3DFACE
8
0
10
-337.0
20
-425.5
30
-886.81006
11
-346.0
21
-425.5
31
-886.81006
12
-346.0
22
-436.5
32
-886.81006
13
-345.9999
23
-436.4999
33
-886.80994
0
3DFACE
8
0
10
-335.0
20
-433.5
30
-886.81006
11
-333.0
21
-433.5
31
-886.81006
12
-333.0
22
-425.5
32
-886.81006
13
-332.9999
23
-425.4999
33
-886.80994
0
3DFACE
8
0
10
-333.0
20
-425.5
30
-886.81006
11
-335.0
21
-425.5
31
-886.81006
12
-335.0
22
-433.5
32
-886.81006
13
-334.9999
23
-433.4999
33
-886.80994
0
3DFACE
8
0
10
-324.5
20
-441.5
30
-886.81006
11
-313.5
21
-441.5
31
-886.81006
12
-313.5
22
-425.5
32
-886.81006
13
-313.4999
23
-425.4999
33
-886.80994
0
3DFACE
8
0
10
-313.5
20
-425.5
30
-886.81006
11
-324.5
21
-425.5
31
-886.81006
12
-324.5
22
-441.5
32
-886.81006
13
-324.4999
23
-441.4999
33
-886.80994
0
3DFACE
8
0
10
-312.0
20
-441.5
30
-886.81006
11
-302.5
21
-441.5
31
-886.81006
12
-302.5
22
-425.5
32
-886.81006
13
-302.4999
23
-425.4999
33
-886.80994
0
3DFACE
8
0
10
-302.5
20
-425.5
30
-886.81006
11
-312.0
21
-425.5
31
-886.81006
12
-312.0
22
-441.5
32
-886.81006
13
-311.9999
23
-441.4999
33
-886.80994
0
3DFACE
8
0
10
-301.0
20
-441.5
30
-886.81006
11
-291.5
21
-441.5
31
-886.81006
12
-291.5
22
-425.5
32
-886.81006
13
-291.4999
23
-425.4999
33
-886.80994
0
3DFACE
8
0
10
-291.5
20
-425.5
30
-886.81006
11
-301.0
21
-425.5
31
-886.81006
12
-301.0
22
-441.5
32
-886.81006
13
-300.9999
23
-441.4999
33
-886.80994
0
3DFACE
8
0
10
-501.5
20
-411.0
30
-886.81006
11
-493.0
21
-411.0
31
-886.81006
12
-493.0
22
-395.5
32
-886.81006
13
-492.9999
23
-395.4999
33
-886.80994
0
3DFACE
8
0
10
-493.0
20
-395.5
30
-886.81006
11
-501.5
21
-395.5
31
-886.81006
12
-501.5
22
-411.0
32
-886.81006
13
-501.4999
23
-410.9999
33
-886.80994
0
3DFACE
8
0
10
-492.5
20
-406.5
30
-886.81006
11
-482.5
21
-406.5
31
-886.81006
12
-482.5
22
-395.5
32
-886.81006
13
-482.4999
23
-395.4999
33
-886.80994
0
3DFACE
8
0
10
-482.5
20
-395.5
30
-886.81006
11
-492.5
21
-395.5
31
-886.81006
12
-492.5
22
-406.5
32
-886.81006
13
-492.4999
23
-406.4999
33
-886.80994
0
3DFACE
8
0
10
-481.0
20
-411.0
30
-886.81006
11
-472.5
21
-411.0
31
-886.81006
12
-472.5
22
-395.5
32
-886.81006
13
-472.4999
23
-395.4999
33
-886.80994
0
3DFACE
8
0
10
-472.5
20
-395.5
30
-886.81006
11
-481.0
21
-395.5
31
-886.81006
12
-481.0
22
-411.0
32
-886.81006
13
-480.9999
23
-410.9999
33
-886.80994
0
3DFACE
8
0
10
-472.0
20
-406.5
30
-886.81006
11
-462.0
21
-406.5
31
-886.81006
12
-462.0
22
-395.5
32
-886.81006
13
-461.9999
23
-395.4999
33
-886.80994
0
3DFACE
8
0
10
-462.0
20
-395.5
30
-886.81006
11
-472.0
21
-395.5
31
-886.81006
12
-472.0
22
-406.5
32
-886.81006
13
-471.9999
23
-406.4999
33
-886.80994
0
3DFACE
8
0
10
-459.5
20
-412.5
30
-886.81006
11
-454.5
21
-412.5
31
-886.81006
12
-454.5
22
-395.5
32
-886.81006
13
-454.4999
23
-395.4999
33
-886.80994
0
3DFACE
8
0
10
-454.5
20
-395.5
30
-886.81006
11
-459.5
21
-395.5
31
-886.81006
12
-459.5
22
-412.5
32
-886.81006
13
-459.4999
23
-412.4999
33
-886.80994
0
3DFACE
8
0
10
-445.5
20
-412.5
30
-886.81006
11
-440.5
21
-412.5
31
-886.81006
12
-440.5
22
-395.5
32
-886.81006
13
-440.4999
23
-395.4999
33
-886.80994
0
3DFACE
8
0
10
-440.5
20
-395.5
30
-886.81006
11
-445.5
21
-395.5
31
-886.81006
12
-445.5
22
-412.5
32
-886.81006
13
-445.4999
23
-412.4999
33
-886.80994
0
3DFACE
8
0
10
-439.5
20
-406.5
30
-886.81006
11
-430.0
21
-406.5
31
-886.81006
12
-430.0
22
-395.5
32
-886.81006
13
-429.9999
23
-395.4999
33
-886.80994
0
3DFACE
8
0
10
-430.0
20
-395.5
30
-886.81006
11
-439.5
21
-395.5
31
-886.81006
12
-439.5
22
-406.5
32
-886.81006
13
-439.4999
23
-406.4999
33
-886.80994
0
3DFACE
8
0
10
-428.0
20
-406.5
30
-886.81006
11
-418.0
21
-406.5
31
-886.81006
12
-418.0
22
-395.5
32
-886.81006
13
-417.9999
23
-395.4999
33
-886.80994
0
3DFACE
8
0
10
-418.0
20
-395.5
30
-886.81006
11
-428.0
21
-395.5
31
-886.81006
12
-428.0
22
-406.5
32
-886.81006
13
-427.9999
23
-406.4999
33
-886.80994
0
3DFACE
8
0
10
-416.0
20
-406.5
30
-886.81006
11
-406.0
21
-406.5
31
-886.81006
12
-406.0
22
-390.5
32
-886.81006
13
-405.9999
23
-390.4999
33
-886.80994
0
3DFACE
8
0
10
-406.0
20
-390.5
30
-886.81006
11
-416.0
21
-390.5
31
-886.81006
12
-416.0
22
-406.5
32
-886.81006
13
-415.9999
23
-406.4999
33
-886.80994
0
3DFACE
8
0
10
-404.5
20
-411.0
30
-886.81006
11
-396.0
21
-411.0
31
-886.81006
12
-396.0
22
-395.5
32
-886.81006
13
-395.9999
23
-395.4999
33
-886.80994
0
3DFACE
8
0
10
-396.0
20
-395.5
30
-886.81006
11
-404.5
21
-395.5
31
-886.81006
12
-404.5
22
-411.0
32
-886.81006
13
-404.4999
23
-410.9999
33
-886.80994
0
3DFACE
8
0
10
-395.5
20
-412.0
30
-886.81006
11
-385.5
21
-412.0
31
-886.81006
12
-385.5
22
-395.5
32
-886.81006
13
-385.4999
23
-395.4999
33
-886.80994
0
3DFACE
8
0
10
-385.5
20
-395.5
30
-886.81006
11
-395.5
21
-395.5
31
-886.81006
12
-395.5
22
-412.0
32
-886.81006
13
-395.4999
23
-411.9999
33
-886.80994
0
3DFACE
8
0
10
-383.5
20
-403.5
30
-886.81006
11
-381.5
21
-403.5
31
-886.81006
12
-381.5
22
-395.5
32
-886.81006
13
-381.4999
23
-395.4999
33
-886.80994
0
3DFACE
8
0
10
-381.5
20
-395.5
30
-886.81006
11
-383.5
21
-395.5
31
-886.81006
12
-383.5
22
-403.5
32
-886.81006
13
-383.4999
23
-403.4999
33
-886.80994
0
3DFACE
8
0
10
-372.0
20
-411.5
30
-886.81006
11
-362.0
21
-411.5
31
-886.81006
12
-362.0
22
-395.5
32
-886.81006
13
-361.9999
23
-395.4999
33
-886.80994
0
3DFACE
8
0
10
-362.0
20
-395.5
30
-886.81006
11
-372.0
21
-395.5
31
-886.81006
12
-372.0
22
-411.5
32
-886.81006
13
-371.9999
23
-411.4999
33
-886.80994
0
3DFACE
8
0
10
-360.0
20
-411.5
30
-886.81006
11
-350.0
21
-411.5
31
-886.81006
12
-350.0
22
-395.5
32
-886.81006
13
-349.9999
23
-395.4999
33
-886.80994
0
3DFACE
8
0
10
-350.0
20
-395.5
30
-886.81006
11
-360.0
21
-395.5
31
-886.81006
12
-360.0
22
-411.5
32
-886.81006
13
-359.9999
23
-411.4999
33
-886.80994
0
3DFACE
8
0
10
-348.0
20
-411.5
30
-886.81006
11
-338.0
21
-411.5
31
-886.81006
12
-338.0
22
-395.5
32
-886.81006
13
-337.9999
23
-395.4999
33
-886.80994
0
3DFACE
8
0
10
-338.0
20
-395.5
30
-886.81006
11
-348.0
21
-395.5
31
-886.81006
12
-348.0
22
-411.5
32
-886.81006
13
-347.9999
23
-411.4999
33
-886.80994
0
3DFACE
8
0
10
-336.0
20
-411.5
30
-886.81006
11
-326.0
21
-411.5
31
-886.81006
12
-326.0
22
-395.5
32
-886.81006
13
-325.9999
23
-395.4999
33
-886.80994
0
3DFACE
8
0
10
-326.0
20
-395.5
30
-886.81006
11
-336.0
21
-395.5
31
-886.81006
12
-336.0
22
-411.5
32
-886.81006
13
-335.9999
23
-411.4999
33
-886.80994
0
3DFACE
8
0
10
-324.0
20
-411.5
30
-886.81006
11
-314.5
21
-411.5
31
-886.81006
12
-314.5
22
-395.5
32
-886.81006
13
-314.4999
23
-395.4999
33
-886.80994
0
3DFACE
8
0
10
-314.5
20
-395.5
30
-886.81006
11
-324.0
21
-395.5
31
-886.81006
12
-324.0
22
-411.5
32
-886.81006
13
-323.9999
23
-411.4999
33
-886.80994
0
3DFACE
8
0
10
-312.5
20
-397.5
30
-886.81006
11
-310.5
21
-397.5
31
-886.81006
12
-310.5
22
-395.5
32
-886.81006
13
-310.4999
23
-395.4999
33
-886.80994
0
3DFACE
8
0
10
-310.5
20
-395.5
30
-886.81006
11
-312.5
21
-395.5
31
-886.81006
12
-312.5
22
-397.5
32
-886.81006
13
-312.4999
23
-397.4999
33
-886.80994
0
3DFACE
8
0
10
-308.5
20
-411.5
30
-886.81006
11
-299.0
21
-411.5
31
-886.81006
12
-299.0
22
-395.5
32
-886.81006
13
-298.9999
23
-395.4999
33
-886.80994
0
3DFACE
8
0
10
-299.0
20
-395.5
30
-886.81006
11
-308.5
21
-395.5
31
-886.81006
12
-308.5
22
-411.5
32
-886.81006
13
-308.4999
23
-411.4999
33
-886.80994
0
ENDSEC
0
EOF
